%YAML 1.1
%TAG !u! tag:unity3d.com,2011:
--- !u!1001 &7020909914867674589
PrefabInstance:
  m_ObjectHideFlags: 0
  serializedVersion: 2
  m_Modification:
    m_TransformParent: {fileID: 0}
    m_Modifications:
    - target: {fileID: 8193601488932536830, guid: 86fc4faa3f1a941f7a5800ac39d55aef,
        type: 3}
      propertyPath: m_Name
      value: MenuOverlay Main Variant
      objectReference: {fileID: 0}
    - target: {fileID: 8193601488932536831, guid: 86fc4faa3f1a941f7a5800ac39d55aef,
        type: 3}
      propertyPath: m_LocalPosition.x
      value: 0
      objectReference: {fileID: 0}
    - target: {fileID: 8193601488932536831, guid: 86fc4faa3f1a941f7a5800ac39d55aef,
        type: 3}
      propertyPath: m_LocalPosition.y
      value: 0
      objectReference: {fileID: 0}
    - target: {fileID: 8193601488932536831, guid: 86fc4faa3f1a941f7a5800ac39d55aef,
        type: 3}
      propertyPath: m_LocalPosition.z
      value: 0
      objectReference: {fileID: 0}
    - target: {fileID: 8193601488932536831, guid: 86fc4faa3f1a941f7a5800ac39d55aef,
        type: 3}
      propertyPath: m_LocalRotation.x
      value: 0
      objectReference: {fileID: 0}
    - target: {fileID: 8193601488932536831, guid: 86fc4faa3f1a941f7a5800ac39d55aef,
        type: 3}
      propertyPath: m_LocalRotation.y
      value: 0
      objectReference: {fileID: 0}
    - target: {fileID: 8193601488932536831, guid: 86fc4faa3f1a941f7a5800ac39d55aef,
        type: 3}
      propertyPath: m_LocalRotation.z
      value: 0
      objectReference: {fileID: 0}
    - target: {fileID: 8193601488932536831, guid: 86fc4faa3f1a941f7a5800ac39d55aef,
        type: 3}
      propertyPath: m_LocalRotation.w
      value: 1
      objectReference: {fileID: 0}
    - target: {fileID: 8193601488932536831, guid: 86fc4faa3f1a941f7a5800ac39d55aef,
        type: 3}
      propertyPath: m_RootOrder
      value: 0
      objectReference: {fileID: 0}
    - target: {fileID: 8193601488932536831, guid: 86fc4faa3f1a941f7a5800ac39d55aef,
        type: 3}
      propertyPath: m_LocalEulerAnglesHint.x
      value: 0
      objectReference: {fileID: 0}
    - target: {fileID: 8193601488932536831, guid: 86fc4faa3f1a941f7a5800ac39d55aef,
        type: 3}
      propertyPath: m_LocalEulerAnglesHint.y
      value: 0
      objectReference: {fileID: 0}
    - target: {fileID: 8193601488932536831, guid: 86fc4faa3f1a941f7a5800ac39d55aef,
        type: 3}
      propertyPath: m_LocalEulerAnglesHint.z
      value: 0
      objectReference: {fileID: 0}
    - target: {fileID: 8193601488932536831, guid: 86fc4faa3f1a941f7a5800ac39d55aef,
        type: 3}
      propertyPath: m_AnchoredPosition.x
      value: 0
      objectReference: {fileID: 0}
    - target: {fileID: 8193601488932536831, guid: 86fc4faa3f1a941f7a5800ac39d55aef,
        type: 3}
      propertyPath: m_AnchoredPosition.y
      value: 0
      objectReference: {fileID: 0}
    - target: {fileID: 8193601488932536831, guid: 86fc4faa3f1a941f7a5800ac39d55aef,
        type: 3}
      propertyPath: m_SizeDelta.x
      value: 200
      objectReference: {fileID: 0}
    - target: {fileID: 8193601488932536831, guid: 86fc4faa3f1a941f7a5800ac39d55aef,
        type: 3}
      propertyPath: m_SizeDelta.y
      value: 300
      objectReference: {fileID: 0}
    - target: {fileID: 8193601488932536831, guid: 86fc4faa3f1a941f7a5800ac39d55aef,
        type: 3}
      propertyPath: m_AnchorMin.x
      value: 0.5
      objectReference: {fileID: 0}
    - target: {fileID: 8193601488932536831, guid: 86fc4faa3f1a941f7a5800ac39d55aef,
        type: 3}
      propertyPath: m_AnchorMin.y
      value: 0.5
      objectReference: {fileID: 0}
    - target: {fileID: 8193601488932536831, guid: 86fc4faa3f1a941f7a5800ac39d55aef,
        type: 3}
      propertyPath: m_AnchorMax.x
      value: 0.5
      objectReference: {fileID: 0}
    - target: {fileID: 8193601488932536831, guid: 86fc4faa3f1a941f7a5800ac39d55aef,
        type: 3}
      propertyPath: m_AnchorMax.y
      value: 0.5
      objectReference: {fileID: 0}
    - target: {fileID: 8193601488932536831, guid: 86fc4faa3f1a941f7a5800ac39d55aef,
        type: 3}
      propertyPath: m_Pivot.x
      value: 0.5
      objectReference: {fileID: 0}
    - target: {fileID: 8193601488932536831, guid: 86fc4faa3f1a941f7a5800ac39d55aef,
        type: 3}
      propertyPath: m_Pivot.y
      value: 0.5
      objectReference: {fileID: 0}
    m_RemovedComponents: []
  m_SourcePrefab: {fileID: 100100000, guid: 86fc4faa3f1a941f7a5800ac39d55aef, type: 3}
--- !u!224 &1214508973422226466 stripped
RectTransform:
  m_CorrespondingSourceObject: {fileID: 8193601488932536831, guid: 86fc4faa3f1a941f7a5800ac39d55aef,
    type: 3}
  m_PrefabInstance: {fileID: 7020909914867674589}
  m_PrefabAsset: {fileID: 0}
--- !u!1001 &7020909916296810297
PrefabInstance:
  m_ObjectHideFlags: 0
  serializedVersion: 2
  m_Modification:
    m_TransformParent: {fileID: 1214508973422226466}
    m_Modifications:
    - target: {fileID: 8060307887119551033, guid: 1e56699069ffa4125b63a54caf145aa4,
        type: 3}
      propertyPath: m_Name
      value: ButtonPrefab
      objectReference: {fileID: 0}
    - target: {fileID: 8060307887119551032, guid: 1e56699069ffa4125b63a54caf145aa4,
        type: 3}
      propertyPath: m_LocalPosition.x
      value: 0
      objectReference: {fileID: 0}
    - target: {fileID: 8060307887119551032, guid: 1e56699069ffa4125b63a54caf145aa4,
        type: 3}
      propertyPath: m_LocalPosition.y
      value: 0
      objectReference: {fileID: 0}
    - target: {fileID: 8060307887119551032, guid: 1e56699069ffa4125b63a54caf145aa4,
        type: 3}
      propertyPath: m_LocalPosition.z
      value: 0
      objectReference: {fileID: 0}
    - target: {fileID: 8060307887119551032, guid: 1e56699069ffa4125b63a54caf145aa4,
        type: 3}
      propertyPath: m_LocalRotation.x
      value: -0
      objectReference: {fileID: 0}
    - target: {fileID: 8060307887119551032, guid: 1e56699069ffa4125b63a54caf145aa4,
        type: 3}
      propertyPath: m_LocalRotation.y
      value: -0
      objectReference: {fileID: 0}
    - target: {fileID: 8060307887119551032, guid: 1e56699069ffa4125b63a54caf145aa4,
        type: 3}
      propertyPath: m_LocalRotation.z
      value: -0
      objectReference: {fileID: 0}
    - target: {fileID: 8060307887119551032, guid: 1e56699069ffa4125b63a54caf145aa4,
        type: 3}
      propertyPath: m_LocalRotation.w
      value: 1
      objectReference: {fileID: 0}
    - target: {fileID: 8060307887119551032, guid: 1e56699069ffa4125b63a54caf145aa4,
        type: 3}
      propertyPath: m_RootOrder
      value: 1
      objectReference: {fileID: 0}
    - target: {fileID: 8060307887119551032, guid: 1e56699069ffa4125b63a54caf145aa4,
        type: 3}
      propertyPath: m_LocalEulerAnglesHint.x
      value: 0
      objectReference: {fileID: 0}
    - target: {fileID: 8060307887119551032, guid: 1e56699069ffa4125b63a54caf145aa4,
        type: 3}
      propertyPath: m_LocalEulerAnglesHint.y
      value: 0
      objectReference: {fileID: 0}
    - target: {fileID: 8060307887119551032, guid: 1e56699069ffa4125b63a54caf145aa4,
        type: 3}
      propertyPath: m_LocalEulerAnglesHint.z
      value: 0
      objectReference: {fileID: 0}
    - target: {fileID: 8060307887119551032, guid: 1e56699069ffa4125b63a54caf145aa4,
        type: 3}
      propertyPath: m_AnchoredPosition.x
      value: 0
      objectReference: {fileID: 0}
    - target: {fileID: 8060307887119551032, guid: 1e56699069ffa4125b63a54caf145aa4,
        type: 3}
      propertyPath: m_AnchoredPosition.y
      value: 0
      objectReference: {fileID: 0}
    - target: {fileID: 8060307887119551032, guid: 1e56699069ffa4125b63a54caf145aa4,
        type: 3}
      propertyPath: m_SizeDelta.x
      value: 160
      objectReference: {fileID: 0}
    - target: {fileID: 8060307887119551032, guid: 1e56699069ffa4125b63a54caf145aa4,
        type: 3}
      propertyPath: m_SizeDelta.y
      value: 30
      objectReference: {fileID: 0}
    - target: {fileID: 8060307887119551032, guid: 1e56699069ffa4125b63a54caf145aa4,
        type: 3}
      propertyPath: m_AnchorMin.x
      value: 0.5
      objectReference: {fileID: 0}
    - target: {fileID: 8060307887119551032, guid: 1e56699069ffa4125b63a54caf145aa4,
        type: 3}
      propertyPath: m_AnchorMin.y
      value: 0.5
      objectReference: {fileID: 0}
    - target: {fileID: 8060307887119551032, guid: 1e56699069ffa4125b63a54caf145aa4,
        type: 3}
      propertyPath: m_AnchorMax.x
      value: 0.5
      objectReference: {fileID: 0}
    - target: {fileID: 8060307887119551032, guid: 1e56699069ffa4125b63a54caf145aa4,
        type: 3}
      propertyPath: m_AnchorMax.y
      value: 0.5
      objectReference: {fileID: 0}
    - target: {fileID: 8060307887119551032, guid: 1e56699069ffa4125b63a54caf145aa4,
        type: 3}
      propertyPath: m_Pivot.x
      value: 0.5
      objectReference: {fileID: 0}
    - target: {fileID: 8060307887119551032, guid: 1e56699069ffa4125b63a54caf145aa4,
        type: 3}
      propertyPath: m_Pivot.y
      value: 0.5
      objectReference: {fileID: 0}
    m_RemovedComponents: []
  m_SourcePrefab: {fileID: 100100000, guid: 1e56699069ffa4125b63a54caf145aa4, type: 3}
--- !u!1001 &7020909916529862876
PrefabInstance:
  m_ObjectHideFlags: 0
  serializedVersion: 2
  m_Modification:
    m_TransformParent: {fileID: 1214508973422226466}
    m_Modifications:
    - target: {fileID: 6643115805040010471, guid: 12915320d32304d67a3d7c5013decbef,
        type: 3}
      propertyPath: m_Name
      value: TitleTextPrefab
      objectReference: {fileID: 0}
    - target: {fileID: 6643115805040010470, guid: 12915320d32304d67a3d7c5013decbef,
        type: 3}
      propertyPath: m_LocalPosition.x
      value: 0
      objectReference: {fileID: 0}
    - target: {fileID: 6643115805040010470, guid: 12915320d32304d67a3d7c5013decbef,
        type: 3}
      propertyPath: m_LocalPosition.y
      value: 0
      objectReference: {fileID: 0}
    - target: {fileID: 6643115805040010470, guid: 12915320d32304d67a3d7c5013decbef,
        type: 3}
      propertyPath: m_LocalPosition.z
      value: 0
      objectReference: {fileID: 0}
    - target: {fileID: 6643115805040010470, guid: 12915320d32304d67a3d7c5013decbef,
        type: 3}
      propertyPath: m_LocalRotation.x
      value: -0
      objectReference: {fileID: 0}
    - target: {fileID: 6643115805040010470, guid: 12915320d32304d67a3d7c5013decbef,
        type: 3}
      propertyPath: m_LocalRotation.y
      value: -0
      objectReference: {fileID: 0}
    - target: {fileID: 6643115805040010470, guid: 12915320d32304d67a3d7c5013decbef,
        type: 3}
      propertyPath: m_LocalRotation.z
      value: -0
      objectReference: {fileID: 0}
    - target: {fileID: 6643115805040010470, guid: 12915320d32304d67a3d7c5013decbef,
        type: 3}
      propertyPath: m_LocalRotation.w
      value: 1
      objectReference: {fileID: 0}
    - target: {fileID: 6643115805040010470, guid: 12915320d32304d67a3d7c5013decbef,
        type: 3}
      propertyPath: m_RootOrder
      value: 0
      objectReference: {fileID: 0}
    - target: {fileID: 6643115805040010470, guid: 12915320d32304d67a3d7c5013decbef,
        type: 3}
      propertyPath: m_LocalEulerAnglesHint.x
      value: 0
      objectReference: {fileID: 0}
    - target: {fileID: 6643115805040010470, guid: 12915320d32304d67a3d7c5013decbef,
        type: 3}
      propertyPath: m_LocalEulerAnglesHint.y
      value: 0
      objectReference: {fileID: 0}
    - target: {fileID: 6643115805040010470, guid: 12915320d32304d67a3d7c5013decbef,
        type: 3}
      propertyPath: m_LocalEulerAnglesHint.z
      value: 0
      objectReference: {fileID: 0}
    - target: {fileID: 6643115805040010470, guid: 12915320d32304d67a3d7c5013decbef,
        type: 3}
      propertyPath: m_AnchoredPosition.x
      value: 0
      objectReference: {fileID: 0}
    - target: {fileID: 6643115805040010470, guid: 12915320d32304d67a3d7c5013decbef,
        type: 3}
      propertyPath: m_AnchoredPosition.y
      value: 0
      objectReference: {fileID: 0}
    - target: {fileID: 6643115805040010470, guid: 12915320d32304d67a3d7c5013decbef,
        type: 3}
      propertyPath: m_SizeDelta.x
      value: 160
      objectReference: {fileID: 0}
    - target: {fileID: 6643115805040010470, guid: 12915320d32304d67a3d7c5013decbef,
        type: 3}
      propertyPath: m_SizeDelta.y
      value: 50
      objectReference: {fileID: 0}
    - target: {fileID: 6643115805040010470, guid: 12915320d32304d67a3d7c5013decbef,
        type: 3}
      propertyPath: m_AnchorMin.x
      value: 0.5
      objectReference: {fileID: 0}
    - target: {fileID: 6643115805040010470, guid: 12915320d32304d67a3d7c5013decbef,
        type: 3}
      propertyPath: m_AnchorMin.y
      value: 1
      objectReference: {fileID: 0}
    - target: {fileID: 6643115805040010470, guid: 12915320d32304d67a3d7c5013decbef,
        type: 3}
      propertyPath: m_AnchorMax.x
      value: 0.5
      objectReference: {fileID: 0}
    - target: {fileID: 6643115805040010470, guid: 12915320d32304d67a3d7c5013decbef,
        type: 3}
      propertyPath: m_AnchorMax.y
      value: 1
      objectReference: {fileID: 0}
    - target: {fileID: 6643115805040010470, guid: 12915320d32304d67a3d7c5013decbef,
        type: 3}
      propertyPath: m_Pivot.x
      value: 0.5
      objectReference: {fileID: 0}
    - target: {fileID: 6643115805040010470, guid: 12915320d32304d67a3d7c5013decbef,
        type: 3}
      propertyPath: m_Pivot.y
      value: 1
      objectReference: {fileID: 0}
    m_RemovedComponents: []
  m_SourcePrefab: {fileID: 100100000, guid: 12915320d32304d67a3d7c5013decbef, type: 3}
